{
  "project_info": {
    "project_id": "super-tropper",
    "project_number": "772456996667",
    "name": "Super Tropper"
  },
  "client": [
    {
      "client_info": {
        "mobilesdk_app_id": "1:772456996667:android:952eae9437b17f4d",
        "client_id": "android:com.example.al.supertroper",
        "client_type": 1,
        "android_client_info": {
          "package_name": "com.example.al.supertroper"
        }
      },
      "oauth_client": [],
      "api_key": [],
      "services": {
        "analytics_service": {
          "status": 2,
          "analytics_property": {
            "tracking_id": "UA-61508305-3"
          }
        },
        "cloud_messaging_service": {
          "status": 1,
          "apns_config": []
        },
        "appinvite_service": {
          "status": 1,
          "other_platform_oauth_client": []
        },
        "google_signin_service": {
          "status": 1
        },
        "ads_service": {
          "status": 1
        }
      }
    }
  ],
  "client_info": [],
  "ARTIFACT_VERSION": "1"
}